^C:\USERS\CMATTHEWS\DOCUMENTS\VISUAL STUDIO 2015\PROJECTS\ESCAPEGAME\ESCAPEGAME\ESCAPEGAME.CPP
/c /ZI /nologo /W3 /WX- /sdl /Od /Oy- /D _MBCS /Gm /EHsc /RTC1 /MDd /GS /fp:precise /Zc:wchar_t /Zc:forScope /Zc:inline /Fo"DEBUG\\" /Fd"DEBUG\VC140.PDB" /Gd /TP /analyze- C:\USERS\CMATTHEWS\DOCUMENTS\VISUAL STUDIO 2015\PROJECTS\ESCAPEGAME\ESCAPEGAME\ESCAPEGAME.CPP
^C:\USERS\CMATTHEWS\DOCUMENTS\VISUAL STUDIO 2015\PROJECTS\ESCAPEGAME\ESCAPEGAME\GAME.CPP
/c /ZI /nologo /W3 /WX- /sdl /Od /Oy- /D _MBCS /Gm /EHsc /RTC1 /MDd /GS /fp:precise /Zc:wchar_t /Zc:forScope /Zc:inline /Fo"DEBUG\\" /Fd"DEBUG\VC140.PDB" /Gd /TP /analyze- C:\USERS\CMATTHEWS\DOCUMENTS\VISUAL STUDIO 2015\PROJECTS\ESCAPEGAME\ESCAPEGAME\GAME.CPP
^C:\USERS\CMATTHEWS\DOCUMENTS\VISUAL STUDIO 2015\PROJECTS\ESCAPEGAME\ESCAPEGAME\MAIN.CPP
/c /ZI /nologo /W3 /WX- /sdl /Od /Oy- /D _MBCS /Gm /EHsc /RTC1 /MDd /GS /fp:precise /Zc:wchar_t /Zc:forScope /Zc:inline /Fo"DEBUG\\" /Fd"DEBUG\VC140.PDB" /Gd /TP /analyze- C:\USERS\CMATTHEWS\DOCUMENTS\VISUAL STUDIO 2015\PROJECTS\ESCAPEGAME\ESCAPEGAME\MAIN.CPP
