﻿  EscapeGame.cpp
c:\users\cmatthews\documents\visual studio 2015\projects\escapegame\escapegame\Game.h(2): fatal error C1083: Cannot open include file: 'SDL.h': No such file or directory
  Game.cpp
c:\users\cmatthews\documents\visual studio 2015\projects\escapegame\escapegame\Game.h(2): fatal error C1083: Cannot open include file: 'SDL.h': No such file or directory
  main.cpp
c:\users\cmatthews\documents\visual studio 2015\projects\escapegame\escapegame\Game.h(2): fatal error C1083: Cannot open include file: 'SDL.h': No such file or directory
